<?xml version="1.0" encoding="UTF-8"?>
<svg width="116px" height="102px" viewBox="0 0 116 102" version="1.1" xmlns="http://www.w3.org/2000/svg" xmlns:xlink="http://www.w3.org/1999/xlink">
    <!-- Generator: sketchtool 52.2 (67145) - http://www.bohemiancoding.com/sketch -->
    <title>35138228-C679-49A8-98E2-34BB97DFA11A</title>
    <desc>Created with sketchtool.</desc>
    <g id="Page-1" stroke="none" stroke-width="1" fill="none" fill-rule="evenodd">
        <g id="4" transform="translate(-903.000000, -335.000000)" fill-rule="nonzero" stroke="#069220" stroke-width="5">
            <g id="3dinteg" transform="translate(903.000000, 335.000000)">
                <polygon id="Path-3" points="38 10.3251391 87.737192 10.3251391 104.689733 53.8780488 87.737192 91.5280913 31.0666507 91.5280913 9.64128014 53.8780488"></polygon>
                <polyline id="Path-4" points="38 10.2153353 69.5357295 37.5 86.2876401 10.2153353"></polyline>
                <polyline id="Path-5" points="38 11.7298275 56.8377644 68.6364952 104.689733 52.0429019 69.5357295 37.5 59.2203048 63.2388007"></polyline>
                <polyline id="Path-6" points="11.2473299 53.8780488 58.6593463 68.0596143 31.0666507 93.1153524"></polyline>
                <path d="M56.8377644,68.187179 L90.8387754,91.3789632" id="Path-7"></path>
                <circle id="Oval" fill="#FFFFFF" cx="39" cy="11" r="8"></circle>
                <circle id="Oval-Copy-7" fill="#FFFFFF" cx="31" cy="91" r="8"></circle>
                <circle id="Oval-Copy-3" fill="#FFFFFF" cx="86" cy="11" r="8"></circle>
                <circle id="Oval-Copy-9" fill="#FFFFFF" cx="89" cy="91" r="8"></circle>
                <circle id="Oval-Copy-4" fill="#FFFFFF" cx="105" cy="52" r="8"></circle>
                <circle id="Oval-Copy-5" fill="#FFFFFF" cx="69" cy="38" r="8"></circle>
                <circle id="Oval-Copy-8" fill="#FFFFFF" cx="11" cy="54" r="8"></circle>
                <circle id="Oval-Copy-6" fill="#FFFFFF" cx="58" cy="68" r="8"></circle>
            </g>
        </g>
    </g>
</svg>