<?xml version="1.0" encoding="UTF-8"?>
<svg width="933px" height="366px" viewBox="0 0 933 366" version="1.1" xmlns="http://www.w3.org/2000/svg" xmlns:xlink="http://www.w3.org/1999/xlink">
    <!-- Generator: sketchtool 52.2 (67145) - http://www.bohemiancoding.com/sketch -->
    <title>2591D871-CB40-46A9-8223-9F9B217541A5</title>
    <desc>Created with sketchtool.</desc>
    <defs>
        <linearGradient x1="67.232014%" y1="36.3092948%" x2="48.5223693%" y2="52.0802427%" id="linearGradient-1">
            <stop stop-color="#F5F5F5" stop-opacity="0.821925951" offset="0%"></stop>
            <stop stop-color="#F3F3F3" stop-opacity="0.787555211" offset="2.37640342%"></stop>
            <stop stop-color="#CDCBCB" stop-opacity="0" offset="100%"></stop>
        </linearGradient>
    </defs>
    <g id="Page-1" stroke="none" stroke-width="1" fill="none" fill-rule="evenodd" opacity="0.56515067">
        <g id="3" transform="translate(-580.000000, -340.000000)" fill="url(#linearGradient-1)" fill-rule="nonzero">
            <g id="Combined-Shape" transform="translate(408.000000, 60.000000)">
                <g id="cloud_3" transform="translate(-313.000000, -148.000000)">
                    <path d="M1287.86626,791.784639 C1318.47894,775.173002 1353.53677,765.74096 1390.79249,765.74096 C1510.36214,765.74096 1607.29249,862.895169 1607.29249,982.74096 C1607.29249,1102.58675 1510.36214,1199.74096 1390.79249,1199.74096 C1352.69272,1199.74096 1316.89156,1189.8767 1285.79249,1172.55721 C1254.69343,1189.8767 1218.89226,1199.74096 1180.79249,1199.74096 C1061.22284,1199.74096 964.292491,1102.58675 964.292491,982.74096 C964.292491,973.526888 964.865442,964.446945 965.977582,955.53497 C947.301929,944.897022 930.359375,931.555511 915.679797,916.041536 C896.365447,921.703973 875.932815,924.74096 854.792491,924.74096 C751.15158,924.74096 664.519852,851.7478 643.277473,754.253377 C634.918769,755.235793 626.414488,755.74096 617.792491,755.74096 C541.116319,755.74096 473.74998,715.788773 435.284398,655.520568 C406.983282,669.122458 375.275535,676.74096 341.792491,676.74096 C222.222843,676.74096 125.292491,579.586751 125.292491,459.74096 C125.292491,339.895169 222.222843,242.74096 341.792491,242.74096 C418.468663,242.74096 485.835002,282.693147 524.300584,342.961353 C552.601685,329.359466 584.30944,321.74096 617.792491,321.74096 C721.433403,321.74096 808.06513,394.73412 829.30751,492.228543 C837.666217,491.246127 846.170496,490.74096 854.792491,490.74096 C916.651818,490.74096 972.45172,516.744358 1011.90519,558.440384 C1031.21954,552.777947 1051.65217,549.74096 1072.79249,549.74096 C1192.36214,549.74096 1289.29249,646.895169 1289.29249,766.74096 C1289.29249,775.210956 1288.80834,783.56761 1287.86626,791.784639 Z" transform="translate(866.292491, 721.240960) rotate(-22.000000) translate(-866.292491, -721.240960) "></path>
                </g>
            </g>
        </g>
    </g>
</svg>