<?xml version="1.0" encoding="UTF-8"?>
<svg width="25px" height="25px" viewBox="0 0 25 25" version="1.1" xmlns="http://www.w3.org/2000/svg" xmlns:xlink="http://www.w3.org/1999/xlink">
    <!-- Generator: sketchtool 52.2 (67145) - http://www.bohemiancoding.com/sketch -->
    <title>423CFFA3-0464-403D-9A8B-932BBC3A431E</title>
    <desc>Created with sketchtool.</desc>
    <g id="Page-1" stroke="none" stroke-width="1" fill="none" fill-rule="evenodd" opacity="0.5">
        <g id="1" transform="translate(-1263.000000, -4576.000000)" fill="#FFFFFF">
            <g id="inst-2" transform="translate(1263.000000, 4576.000000)">
                <path d="M21.875,22.65625 L3.125,22.65625 C2.69375,22.65625 2.34375,22.30625 2.34375,21.875 L2.34375,10.15625 L5.46875,10.15625 C5.06171875,10.7421875 4.92421875,11.8351563 4.92421875,12.5289063 C4.92421875,16.7125 8.3359375,20.1164063 12.5289062,20.1164063 C16.7226562,20.1164063 20.134375,16.7125 20.134375,12.5289063 C20.134375,11.8351563 20.0359375,10.7585937 19.53125,10.15625 L22.65625,10.15625 L22.65625,21.875 C22.65625,22.30625 22.30625,22.65625 21.875,22.65625 M12.5289062,7.7328125 C15.184375,7.7328125 17.3367187,9.88046875 17.3367187,12.5289063 C17.3367187,15.178125 15.184375,17.3257813 12.5289062,17.3257813 C9.87421875,17.3257813 7.721875,15.178125 7.721875,12.5289063 C7.721875,9.88046875 9.87421875,7.7328125 12.5289062,7.7328125 M18.75,3.125 L21.09375,3.125 C21.525,3.125 21.875,3.475 21.875,3.90625 L21.875,6.25 C21.875,6.68125 21.525,7.03125 21.09375,7.03125 L18.75,7.03125 C18.31875,7.03125 17.96875,6.68125 17.96875,6.25 L17.96875,3.90625 C17.96875,3.475 18.31875,3.125 18.75,3.125 M22.028125,0 L2.971875,0 C1.33046875,0 0,1.32734375 0,2.96484375 L0,22.0351563 C0,23.6726563 1.33046875,25 2.971875,25 L22.028125,25 C23.6695313,25 25,23.6726563 25,22.0351563 L25,2.96484375 C25,1.32734375 23.6695313,0 22.028125,0" id="inst"></path>
            </g>
        </g>
    </g>
</svg>