<?xml version="1.0" encoding="UTF-8"?>
<svg width="820px" height="773px" viewBox="0 0 820 773" version="1.1" xmlns="http://www.w3.org/2000/svg" xmlns:xlink="http://www.w3.org/1999/xlink">
    <!-- Generator: sketchtool 52.2 (67145) - http://www.bohemiancoding.com/sketch -->
    <title>FAAF4E29-77E4-49E7-A507-560E92D42193</title>
    <desc>Created with sketchtool.</desc>
    <g id="Page-1" stroke="none" stroke-width="1" fill="none" fill-rule="evenodd" opacity="0.1" stroke-dasharray="50,50">
        <g id="OVAL" transform="translate(-207.000000, -36.000000)" fill-rule="nonzero" stroke="#069220" stroke-width="80">
            <g id="oval" transform="translate(207.000000, 36.000000)">
                <path d="M410.457772,732.592227 C614.526987,732.592227 779.957772,567.161442 779.957772,363.092227 C779.957772,159.023012 791.026987,43.3971055 586.957772,43.3971055 C382.888557,43.3971055 40.957772,159.023012 40.957772,363.092227 C40.957772,567.161442 206.388557,732.592227 410.457772,732.592227 Z" id="Oval" transform="translate(410.510783, 387.994666) rotate(359.000000) translate(-410.510783, -387.994666) "></path>
            </g>
        </g>
    </g>
</svg>